{
    "Counterator": {
        "name": "Counterator",
        "label": "Counterator",
        "icon": "icons/file-text.svg",
        "type": "component",
        "setups": [],
        "inputs": [
            {
                "name": "IN",
                "pinType": "default",
                "pinColor": "blue"
            },
            {
                "name": "COUNT",
                "pinType": "default",
                "pinColor": "orange"
            }
        ],
        "outputs": [
            {
                "name": "OUT",
                "pinType": "default",
                "pinColor": "orange"
            }
        ]
    },
    "ValueEmitter": {
        "name": "ValueEmitter",
        "label": "Value Emitter",
        "icon": "icons/bar-chart-2.svg",
        "type": "component",
        "setups": [
            {
                "label": "VALUE",
                "valueType": "Number",
                "editor": "TextField",
                "pinName": "OUT"
            }
        ],
        "inputs": [],
        "outputs": [
            {
                "name": "OUT",
                "pinType": "default",
                "pinColor": "orange",
                "pinControl": "text-input"
            }
        ]
    },
    "ValueIterator": {
        "name": "ValueIterator",
        "label": "Value Iterator",
        "icon": "icons/shopping-cart.svg",
        "type": "component",
        "setups": [],
        "inputs": [],
        "outputs": [
            {
                "name": "OUT",
                "pinType": "default",
                "pinColor": "orange",
                "pinControl": "list-view"
            }
        ]
    }
}
