{
    "FileReader": {
        "label": "File Reader",
        "icon": "icons/file.svg",
        "type": "component",
        "setups": [],
        "inputs": [],
        "outputs": [
            {
                "name": "OUT",
                "pinType": "default",
                "pinColor": "orange"
            }
        ]
    },
    "ProcessReader": {
        "label": "Process Output To Strings",
        "icon": "icons/file.svg",
        "type": "component",
        "setups": [],
        "inputs": [
            {
                "name": "IN",
                "pinType": "default",
                "pinColor": "blue"
            }
        ],
        "outputs": [
            {
                "name": "OUT",
                "pinType": "default",
                "pinColor": "orange"
            }
        ]
    }
}
